{
  "www.lowes.com": "lowes_com",
  "www.dickssportinggoods.com": "dickssportinggoods_com",
  "www.conrad.se": "conrad_se",
  "www.conrad.nl": "conrad_nl",
  "www.conrad.de": "conrad_de",
  "www.cdon.no": "cdon_no",
  "www.asos.com/se": "asos_com_se",
  "www.asos.com/dk": "asos_com_dk",
  "www.afound.com/sv-se": "afound_com_sv_se",
  "www.connox.de": "connox_de",
  "www.nordicnest.se": "nordicnest_se",
  "www.kitchn.no": "kitchn_no",
  "www.imerco.dk": "imerco_dk",
  "www.miranda.com.br": "miranda_com_br",
  "www.costco.ca": "costco_ca",
  "www.visions.ca/default.aspx": "visions_ca_default_aspx",
  "www.nagem.com.br": "nagem_com_br",
  "www.kabum.com.br": "kabum_com_br",
  "www.bemol.com.br": "bemol_com_br",
  "www.havan.com.br": "havan_com_br",
  "www.argos.co.uk": "argos_co_uk",
  "www.biccamera.com": "biccamera_com",
  "www.mediamarkt.at": "mediamarkt_at",
  "www.mediamarkt.gr": "mediamarkt_gr",
  "www.mediamarkt.hu": "mediamarkt_hu",
  "www.mediamarkt.nl": "mediamarkt_nl",
  "www.mediamarkt.be/nl": "mediamarkt_be_nl",
  "www.mediamarkt.be/nl/": "mediamarkt_be_nl",
  "www.mediamarkt.be/fr": "mediamarkt_be_fr",
  "www.mediamarkt.se": "mediamarkt_se",
  "www.mediamarkt.es": "mediamarkt_es",
  "www.mediamarkt.com.tr": "mediamarkt_com_tr",
  "www.mediamarkt.ch": "mediamarkt_ch",
  "www.mediamarkt.pt": "mediamarkt_pt",
  "www.mediamarkt.pl": "mediamarkt_pl",
  "www.mediamarkt.de": "mediamarkt_de",
  "www.euronics.cz": "euronics_cz",
  "www.euronics.ie": "euronics_ie",
  "www.gamestop.de": "gamestop_de",
  "www.gamestop.at": "gamestop_at",
  "www.gamestop.dk": "gamestop_dk",
  "www.gamestop.fi": "gamestop_fi",
  "www.gamestop.ie": "gamestop_ie",
  "www.gamestop.it": "gamestop_it",
  "www.gamestop.no": "gamestop_no",
  "www.gamestop.ch": "gamestop_ch",
  "www.gamestop.se": "gamestop_se",
  "www.gamestop.com": "gamestop_com",
  "www.euronics.es": "euronics_es",
  "www.euronics.it": "euronics_it",
  "www.euronics.it/acquistaonline": "euronics_it",
  "www.harveynorman.co.nz": "harveynorman_co_nz",
  "www.harveynorman.com.au": "harveynorman_com_au",
  "www.costco.com": "costco_com",
  "www.amazon.ae": "amazon_ae",
  "www.euronics.ch": "euronics_ch",
  "www.euronics.ru": "euronics_ru",
  "www.euronics.hu": "euronics_hu",
  "www.euronics.lv": "euronics_lv",
  "www.euronics.ee": "euronics_ee",
  "www.elgiganten.dk": "elgiganten_dk",
  "www.elgiganten.se": "elgiganten_se",
  "www.euronics.se": "euronics_se",
  "www.euronics.co.uk": "euronics_co_uk",
  "www.gigantti.fi": "gigantti_fi",
  "www.bestbuy.ca": "bestbuy_ca",
  "www.bestbuy.com": "bestbuy_com",
  "www.sainsburys.co.uk": "sainsburys_co_uk",
  "www.amazon.nl": "amazon_nl",
  "www.walmart.com": "walmart_com",
  "www.walmart.com.mx": "walmart_com_mx",
  "www.saturn.de": "saturn_de",
  "www.saturn.at": "saturn_at",
  "www.yamada-denkiweb.com": "yamada_denkiweb_com",
  "www.boulanger.com": "boulanger_com",
  "www.elkjop.no": "elkjop_no",
  "www.amazon.co.uk": "amazon_co_uk",
  "www.amazon.com": "amazon_com",
  "www.amazon.de": "amazon_de",
  "www.amazon.fr": "amazon_fr",
  "www.amazon.it": "amazon_it",
  "www.yodobashi.com": "yodobashi_com",
  "www.game.co.uk": "game_co_uk",
  "www.mediaworld.it": "mediaworld_it",
  "www.johnlewis.com": "johnlewis_com",
  "www.euronics.lt": "euronics_lt",
  "www.euronics.fi": "euronics_fi",
  "www.euronics.de": "euronics_de",
  "www.jbhifi.com.au": "jbhifi_com_au",
  "www.jbhifi.co.nz": "jbhifi_co_nz",
  "www.fnac.com": "fnac_com",
  "compra.plusfresc.cat": "compra_plusfresc_cat",
  "www.ulabox.com": "ulabox_com",
  "online.hiperdino.es": "online_hiperdino_es",
  "www.euronics.pt": "euronics_pt",
  "www.tucanexpresssupermercado.com": "tucanexpresssupermercado_com",
  "primenow.amazon.es": "primenow_amazon_es",
  "www.primenowdia.amazon.es": "primenowdia_amazon_es",
  "www.supertambo.es": "supertambo_es",
  "www.piedraonline.com": "piedraonline_com",
  "www.amazon.es/amazon-pantry/": "amazon_es_amazon_pantry",
  "www.froiz.com": "froiz_com",
  "www.capraboacasa.com": "capraboacasa_com",
  "www.bonarea.com": "bonarea_com",
  "www.supermasymas.com/tienda": "supermasymas_com_tienda",
  "www.lupaonline.com": "lupaonline_com",
  "www.elcorteingles.es": "elcorteingles_es",
  "www.hipercor.es": "hipercor_es",
  "www.simply.es": "simply_es",
  "www.dia.es": "dia_es",
  "www.condisline.com": "condisline_com",
  "compraonline.bonpreuesclat.cat": "compraonline_bonpreuesclat_cat",
  "www.lolamarket.com": "lolamarket_com",
  "www.alcampo.es": "alcampo_es",
  "www.alimerkaonline.es": "alimerkaonline_es",
  "www.supermercadosmas.com": "supermercadosmas_com",
  "www.carrefour.es": "carrefour_es",
  "www.sorliclic.com/sorli": "sorliclic_com_sorli",
  "www.gadisline.com": "gadisline_com",
  "tienda.consum.es": "tienda_consum_es",
  "www.supermercadoseljamon.com": "supermercadoseljamon_com",
  "supermercado.eroski.es": "supermercado_eroski_es",
  "www.online.bmsupermercados.es": "online_bmsupermercados_es",
  "www.netonnet.se": "netonnet_se",
  "www.ao.com": "ao_com",
  "www.bestbuy.com.mx": "bestbuy_com_mx",
  "www.technopark.ru": "technopark_ru",
  "www.bhphotovideo.com": "bhphotovideo_com",
  "www.amazon.ca": "amazon_ca",
  "www.amazon.com.mx": "amazon_com_mx",
  "www.cyberport.de": "cyberport_de",
  "www.coolblue.nl": "coolblue_nl",
  "www.cultura.com": "cultura_com",
  "www.webhallen.com/se": "webhallen_com_se",
  "www.bol.com": "bol_com",
  "www.darty.com": "darty_com",
  "www.very.co.uk": "very_co_uk",
  "www.dns-shop.ru": "dns_shop_ru",
  "www.vergelijk.nl": "vergelijk_nl",
  "www.hifiklubben.se": "hifiklubben_se",
  "www.zalando.de": "zalando_de",
  "www.liverpool.com.mx": "liverpool_com_mx",
  "www.currys.co.uk": "currys_co_uk",
  "www.mvideo.ru": "mvideo_ru",
  "www.notebooksbilliger.de": "notebooksbilliger_de",
  "www.jd.com": "jd_com",
  "mall.jd.com/Marshall": "jd_com",
  "mall.jd.com/Urbanears": "jd_com",
  "mall.jd.com/Zhiyun": "jd_com",
  "www.suning.com": "suning_com",
  "www.euronics.dk": "euronics_dk",
  "www.re-store.ru": "re_store_ru",
  "www.petworld.dk": "petworld_dk",
  "www.mustijamirri.fi": "mustijamirri_fi",
  "www.musti.no": "musti_no",
  "www.arkenzoo.se": "arkenzoo_se",
  "www.microcenter.com": "microcenter_com",
  "www.target.com": "target_com",
  "www.ldlc.com": "ldlc_com",
  "www.x-kom.pl": "x_kom_pl",
  "www.xcite.com": "xcite_com",
  "www.virginmegastore.ae": "virginmegastore_ae",
  "www.komplett.no": "komplett_no",
  "www.pccomponentes.com": "pccomponentes_com",
  "www.citilink.ru": "citilink_ru",
  "www.komplett.se": "komplett_se",
  "www.otto.de": "otto_de",
  "www.jarir.com": "jarir_com",
  "www.amazon.es": "amazon_es",
  "www.ebuyer.com": "ebuyer_com",
  "www.eleonto.com": "eleonto_com_de_de",
  "www.granngarden.se": "granngarden_se",
  "www.bcc.nl": "bcc_nl",
  "www.expert.nl": "expert_nl",
  "www.krefel.be/nl": "krefel_be_nl",
  "www.euro.com.pl": "euro_com_pl",
  "www.inet.se": "inet_se",
  "www.maxizoo.dk": "maxizoo_dk",
  "www.mediaexpert.pl": "mediaexpert_pl",
  "www.deindeal.ch/de": "deindeal_ch_de",
  "www.orange.pl": "orange_pl",
  "www.vodafone.co.uk": "vodafone_co_uk",
  "www.ee.co.uk": "ee_co_uk",
  "www.o2.co.uk": "o2_co_uk",
  "www.plus.pl": "plus_pl",
  "www.jaktia.no": "jaktia_no",
  "www.loberen.dk": "loberen_dk",
  "www.olssonsfiske.se": "olssonsfiske_se",
  "www.carrefour.fr": "carrefour_fr",
  "www.lyreco.com": "lyreco_com",
  "www.lyreco.com/webshop/ITIT/index.html": "lyreco_com",
  "www.laatukoru.fi": "laatukoru_fi",
  "www.outnorth.se": "outnorth_se",
  "www.widforss.se": "widforss_se",
  "www.outdoorexperten.se": "outdoorexperten_se",
  "www.amazon.com.br": "amazon_com_br",
  "www.magazineluiza.com.br": "magazineluiza_com_br",
  "www.sears.com.mx": "sears_com_mx",
  "www.coppel.com": "coppel_com",
  "www.extra.com.br": "extra_com_br",
  "www.submarino.com.br": "submarino_com_br",
  "www.americanas.com.br": "americanas_com_br",
  "www.pontofrio.com.br": "pontofrio_com_br",
  "www.shoptime.com.br": "shoptime_com_br",
  "www.casasbahia.com.br": "casasbahia_com_br",
  "www.sanborns.com.mx": "sanborns_com_mx",
  "www.gameplanet.com": "gameplanet_com",
  "www.netonnet.no": "netonnet_no",
  "www.sams.com.mx": "sams_com_mx",
  "www.dormy.com/se": "dormy_com_se",
  "www.dustinhome.se": "dustinhome_se",
  "www.bikeshop.se": "bikeshop_se",
  "www.cykelgear.dk": "cykelgear_dk",
  "www.cykelkraft.se": "cykelkraft_se",
  "www.cyberphoto.se": "cyberphoto_se",
  "www.cykelpartner.dk": "cykelpartner_dk",
  "www.dna.fi": "dna_fi",
  "www.fribikeshop.dk": "fribikeshop_dk",
  "www.golfexperten.dk": "golfexperten_dk",
  "www.grejfreak.dk": "grejfreak_dk",
  "www.verkkokauppa.com": "verkkokauppa_com",
  "www.fust.ch/de": "fust_ch_de",
  "www.happyangler.fi/fi": "happyangler_fi_fi",
  "www.happyangler.se": "happyangler_se",
  "www.hjertmans.se": "hjertmans_se",
  "www.karkkainen.com": "karkkainen_com",
  "www.keskisenkello.fi": "keskisenkello_fi",
  "www.kulta-center.fi": "kulta_center_fi",
  "www.loebeshop.dk": "loebeshop_dk",
  "www.marinea.fi": "marinea_fi",
  "www.marinetorvet.dk": "marinetorvet_dk",
  "www.nordjysk-marine.dk": "nordjysk_marine_dk",
  "www.power.dk": "power_dk",
  "www.power.fi": "power_fi",
  "www.power.no": "power_no",
  "www.power.se": "power_se",
  "www.pulsure.dk": "pulsure_dk",
  "www.marineshop.no": "marineshop_no",
  "www.retkitukku.fi": "retkitukku_fi",
  "www.sportfiskeprylar.se": "sportfiskeprylar_se",
  "www.scandinavianoutdoor.fi": "scandinavianoutdoor_fi",
  "www.scandinavianoutdoor.se": "scandinavianoutdoor_se",
  "www.skistart.com/swe": "skistart_com_swe",
  "www.shipshape.dk": "shipshape_dk",
  "www.spobik.se": "spobik_se",
  "www.ssbilbehor.se": "ssbilbehor_se",
  "www.stadium.se": "stadium_se",
  "www.tbu.dk": "tbu_dk",
  "www.klockmagasinet.se": "klockmagasinet_se",
  "www.xxl.dk": "xxl_dk",
  "www.xxl.fi": "xxl_fi",
  "www.xxl.no": "xxl_no",
  "www.xxl.se": "xxl_se",
  "www.varuste.net": "varuste_net",
  "www.milrab.se": "milrab_se",
  "www.milrab.fi": "milrab_fi",
  "www.sportmaster.dk": "sportmaster_dk",
  "www.pharmacydiscount.gr": "pharmacydiscount_gr",
  "www.pharm16.gr": "pharm16_gr",
  "www.familypharmacy.gr": "familypharmacy_gr",
  "www.ruoto.fi": "ruoto_fi",
  "www.mypharmacy.gr": "mypharmacy_gr",
  "www.healthcorner.gr": "healthcorner_gr",
  "www.loparshop.se": "loparshop_se",
  "www.prisma.fi/fi/prisma": "prisma_fi",
  "www.sport24.dk": "sport24_dk",
  "www.sportamore.se": "sportamore_se",
  "www.erlandsonsbrygga.se": "erlandsonsbrygga_se",
  "www.wupti.com": "wupti_com",
  "www.bilka.dk": "bilka_dk",
  "www.elisa.fi": "elisa_fi",
  "www.foetex.dk": "foetex_dk",
  "www.verkkokauppa.com/fi": "verkkokauppa_com_fi",
  "www.intersport.no": "intersport_no",
  "www.loebeshop.no": "loebeshop_no",
  "www.loepeshop.no": "loebeshop_no",
  "www.kjell.com/no": "kjell_com_no",
  "www.braasport.no": "braasport_no",
  "www.telia.fi": "telia_fi",
  "www.bikeshop.no": "bikeshop_no",
  "www.kjell.com/se": "kjell_com_se",
  "www.hylte-lantman.com": "hylte_lantman_com",
  "www.seasea.se": "seasea_se",
  "www.fjellsport.no": "fjellsport_no",
  "www.magasinet.no": "magasinet_no",
  "www.milrab.no": "milrab_no",
  "www.naturogfritid.no": "naturogfritid_no",
  "www.seasea.no": "seasea_no",
  "www.sport1.no": "sport1_no",
  "www.spinn.no": "spinn_no",
  "www.maritim.no": "maritim_no",
  "www.seatronic.no": "seatronic_no",
  "www.biketown.se": "biketown_se",
  "www.vandenborre.be": "vandenborre_be",
  "www.vandenborre.be/nl": "vandenborre_be",
  "www.electroworld.nl": "electroworld_nl",
  "www.ep.nl": "ep_nl",
  "www.plattetv.nl": "plattetv_nl",
  "www.artencraft.be": "artencraft_be",
  "www.wehkamp.nl": "wehkamp_nl",
  "www.golfhandelen.no": "golfhandelen_no",
  "www.golfshopen.no/om": "golfshopen_no_om",
  "www.jaktogfriluft.no": "jaktogfriluft_no",
  "www.sykkelkomponenter.no": "sykkelkomponenter_no",
  "www.exellent.be/nl": "exellent_be_nl",
  "www.tesco.com": "tesco_com",
  "www.play.pl": "play_pl",
  "www.neonet.pl": "neonet_pl",
  "www.komputronik.pl": "komputronik_pl",
  "www.carphonewarehouse.com": "carphonewarehouse_com",
  "www.giffgaff.com": "giffgaff_com",
  "www.urbanoutfitters.com": "urbanoutfitters_com",
  "www.t-mobile.pl": "t_mobile_pl",
  "www.o2online.de": "o2online_de",
  "www.o2.de": "o2online_de",
  "www.movistar.es": "movistar_es",
  "www.yoigo.com": "yoigo_com",
  "www.fnac.es": "fnac_es",
  "www.medion.com/de/shop": "medion_com_de_shop",
  "www.medion.de": "medion_com_de_shop",
  "www.telekom.de": "telekom_de",
  "www.newegg.com": "newegg_com",
  "www.acehardware.com": "acehardware_com",
  "www.staples.com": "staples_com",
  "shop.advanceautoparts.com": "shop_advanceautoparts_com",
  "www.iport.ru": "iport_ru",
  "www.vetzoo.se": "vetzoo_se",
  "www.petenkoiratarvike.com": "petenkoiratarvike_com",
  "www.zoo.se": "zoo_se",
  "www.crutchfield.com": "crutchfield_com",
  "www.abt.com": "abt_com",
  "www.alza.cz": "alza_cz",
  "www.telia.se": "telia_se",
  "www.intersport.se": "intersport_se",
  "www.technopolis.bg": "technopolis_bg",
  "www.datart.cz": "datart_cz",
  "www.lannasport.se": "lannasport_se",
  "www.nfm.com": "nfm_com",
  "www.friliv.dk": "friliv_dk",
  "www.intersport.fi/fi": "intersport_fi_fi",
  "sportsmagasinet.no": "sportsmagasinet_no",
  "www.sportsmagasinet.no": "sportsmagasinet_no",
  "www.telenor.bg": "telenor_bg",
  "www.addnature.com": "addnature_com",
  "www.orange.fr": "orange_fr",
  "www.telenor.se": "telenor_se",
  "www.vodafone.ro": "vodafone_ro",
  "www.orange.sk": "orange_sk",
  "www.friluftslageret.dk": "friluftslageret_dk",
  "www.naturligvis.com": "naturligvis_com",
  "www.o2.cz": "o2_cz",
  "www.o2.cz/osobni": "o2_cz",
  "www.vodafone.it": "vodafone_it",
  "www.eventyrsport.dk": "eventyrsport_dk",
  "www.neye.dk": "neye_dk",
  "www.outdoorxperten.dk": "outdoorxperten_dk",
  "www.telenor.rs": "telenor_rs",
  "www.snowandrock.com": "snowandrock_com",
  "www.sportsshoes.com": "sportsshoes_com",
  "www.cotswoldoutdoor.com": "cotswoldoutdoor_com",
  "www.o2.sk": "o2_sk",
  "www.orange.ro": "orange_ro",
  "www.a1.bg": "a1_bg",
  "www.proshop.dk": "proshop_dk",
  "www.worldwidestereo.com": "worldwidestereo_com",
  "www.adorama.com": "adorama_com",
  "www.out-of-bounds.se": "out_of_bounds_se",
  "www.jarir.com/sa-en/": "jarir_com_sa_en",
  "www.elektra.com.mx": "elektra_com_mx",
  "www.a1.hr": "a1_hr",
  "www.homedepot.com": "homedepot_com",
  "www.mobiel.nl": "mobiel_nl",
  "www.kpn.com": "kpn_com",
  "www.t-mobile.nl": "t_mobile_nl",
  "www.coolblue.be/fr": "coolblue_be_fr",
  "www.nevisport.com": "nevisport_com",
  "www.telia.no": "telia_no",
  "www.windtre.it": "windtre_it",
  "www.pcrichard.com": "pcrichard_com",
  "www.telekom.sk": "telekom_sk",
  "www.digi.ro": "digi_ro",
  "www.bergfreunde.de": "bergfreunde_de",
  "www.vodafone.nl": "vodafone_nl",
  "www.vandenborre.be/fr": "vandenborre_be_fr",
  "www.veikonkone.fi": "veikonkone_fi",
  "www.motorola-shop.ru": "motorola_shop_ru",
  "www.gigatron.rs": "gigatron_rs",
  "www.smartson.hr": "smartson_hr",
  "www.proshop.se": "proshop_se",
  "www.cosmote.gr/hub": "cosmote_gr_hub",
  "www.cosmote.gr": "cosmote_gr_hub",
  "www.cdiscount.com": "cdiscount_com",
  "www.trony.it/online": "trony_it_online",
  "www.trony.it": "trony_it_online",
  "www.unieuro.it": "unieuro_it",
  "www.vivacom.bg/bg": "vivacom_bg_bg",
  "www.tele2.se": "tele2_se",
  "www.altex.ro": "altex_ro",
  "www.expertonline.it": "expertonline_it",
  "www.tre.se": "tre_se",
  "www.tim.it": "tim_it",
  "www.yousee.dk": "yousee_dk",
  "www.telenor.dk": "telenor_dk",
  "www.hrvatskitelekom.hr": "hrvatskitelekom_hr",
  "www.winwin.rs": "winwin_rs",
  "www.garmin.se": "garmin_se",
  "www.digitec.ch/de": "digitec_ch_de",
  "www.3.dk": "three_dk",
  "www.krefel.be/fr": "krefel_be_fr",
  "www.links.hr/hr": "links_hr_hr",
  "www.mercadolibre.com.mx": "mercadolibre_com_mx",
  "www.a1.rs": "a1_rs",
  "www.mts.rs": "mts_rs",
  "www.carlson.fi": "carlson_fi",
  "www.emmezeta.hr": "emmezeta_hr",
  "www.ozon.ru": "ozon_ru",
  "www.onlinetrade.ru": "onlinetrade_ru",
  "www.tehnomedia.rs": "tehnomedia_rs",
  "www.tehnomanija.rs": "tehnomanija_rs",
  "www.telemach.hr": "telemach_hr",
  "www.belsimpel.nl": "belsimpel_nl",
  "www.wildberries.ru": "wildberries_ru",
  "www.instar-informatika.hr": "instar_informatika_hr",
  "www.navasport.no": "navasport_no",
  "www.bergzeit.de": "bergzeit_de",
  "www.campz.de": "campz_de",
  "www.bever.nl": "bever_nl",
  "www.zwerfkei.nl": "zwerfkei_nl",
  "www.ekosport.eu": "ekosport_eu",
  "www.mynavyexchange.com": "mynavyexchange_com",
  "www.brandsmartusa.com": "brandsmartusa_com",
  "www.shopcgx.com": "shopcgx_com",
  "www.intertoys.nl": "intertoys_nl",
  "www.dreamland.be": "dreamland_be_e_nl_dl",
  "www.gamemania.be/nl": "gamemania_be_nl",
  "www.gamemania.be": "gamemania_be_nl",
  "www.fun.be": "fun_be",
  "www.dreamland.be/e/fr/dl": "dreamland_be_e_fr_dl",
  "www.dreamland.be/e/nl/dl": "dreamland_be_e_nl_dl",
  "www.fr.fnac.be": "fr_fnac_be",
  "www.nl.fnac.be": "nl_fnac_be",
  "www.fnac.be/fr": "fr_fnac_be",
  "www.fnac.be/nl": "nl_fnac_be",
  "www.dreamland.be/fr": "dreamland_be_e_fr_dl",
  "www.dreamland.be/nl": "dreamland_be_e_nl_dl",
  "www.bagarenochkocken.se": "bagarenochkocken_se",
  "www.kop-kande.dk": "kop_kande_dk",
  "www.madeindesign.com": "madeindesign_com",
  "www.ikarus.de": "ikarus_de",
  "www.cervera.se": "cervera_se",
  "www.kulina.cz": "kulina_cz",
  "www.telia.dk": "telia_dk",
  "www.emag.ro": "emag_ro",
  "www.noon.com/saudi-en/": "noon_com_saudi_en",
  "www.amazon.sa": "amazon_sa",
  "www.box.co.uk": "box_co_uk",
  "www.allegro.pl": "allegro_pl",
  "www.castorama.pl": "castorama_pl",
  "www.cookinglife.nl": "cookinglife_nl",
  "www.aptekagemini.pl": "aptekagemini_pl",
  "www.staples.ca": "staples_ca",
  "www.amazon.co.jp": "amazon_co_jp",
  "www.digitec.ch/en": "digitec_ch_en",
  "www.costco.com.mx": "costco_com_mx",
  "www.webtogs.com": "webtogs_com",
  "www.wiggle.co.uk": "wiggle_co_uk",
  "www.outdoorxl.nl": "outdoorxl_nl",
  "www.microsoft.com/en-us": "microsoft_com_en_us",
  "www.snowcountry.nl": "snowcountry_nl",
  "www.autozone.com": "autozone_com",
  "www.wayfair.com": "wayfair_com",
  "www.build.com": "build_com",
  "www.amazon.se": "amazon_se",
  "www.fastenal.com": "fastenal_com",
  "www.pmtonline.co.uk": "pmtonline_co_uk",
  "www.fairdealmusic.co.uk": "fairdealmusic_co_uk",
  "www.bax-shop.se": "bax_shop_se",
  "www.thomann.de/gb": "thomann_de_gb",
  "www.musicstore.com/en_SE/SEK": "musicstore_com_en_se_sek",
  "www.gear4music.se/sv": "gear4music_se_sv",
  "www.snowleader.com": "snowleader_com",
  "www.madeindesign.co.uk": "madeindesign_co_uk",
  "www.alternate.de": "alternate_de",
  "www.cykloteket.se": "cykloteket_se",
  "www.utomhusliv.se": "utomhusliv_se",
  "www.boerkopcykler.dk": "boerkopcykler_dk",
  "www.magasin.dk": "magasin_dk",
  "www.nordstrom.com": "nordstrom_com",
  "www.intersport.dk": "intersport_dk",
  "www.komplett.dk": "komplett_dk",
  "www.telenet.be": "telenet_be",
  "www.proximus.be": "proximus_be",
  "www.samsung.com/be": "samsung_com_be",
  "www.base.be": "base_be",
  "www.tango.lu/en": "tango_lu_en",
  "www.orange.lu/en/": "orange_lu",
  "www.orange.be": "orange_be",
  "www.selexion.be": "selexion_be",
  "www.post.lu": "post_lu",
  "www.mercadolivre.com.br": "mercadolivre_com_br",
  "www.allyourgames.nl": "allyourgames_nl",
  "www.nedgame.nl": "nedgame_nl",
  "www.toychamp.nl": "toychamp_nl",
  "www.toychamp.be": "toychamp_be",
  "www.maxitoys.be": "maxitoys_be",
  "www.playerone.be": "playerone_be",
  "www.smartoys.be": "smartoys_be",
  "www.broze.be": "broze_be",
  "www.thomann.de": "thomann_de",
  "www.gear4music.com": "gear4music_com",
  "www.bax-shop.nl": "bax_shop_nl",
  "www.grainger.com": "grainger_com",
  "www.ferguson.com": "ferguson_com"
}