* Stimulate Prime Numbers 
* Stimulate Operations 

07-24-19
	(10) addition stimulation
	(10) addition stimulation (95.83% (3 iterations)) [20:22]
	(25) subtraction stimulation (96.7% (4 iterations) [20:47])
	(41) multiplication stimulation [21:28]

	break [21:28]
	(22) end break [21:50]

	(46) attitude correnction and building of framework [22:36]
	(20) half bath [22:50]
	(20) expenses, sort receopts, normalize van [23:10]

07-25-19
	(01:00) multiplication operation stimulation (40% - 73% (3 - 3 iterations)) [09:33]
	// (20) break [10:33]
	(01:21) multiplication operation stimulation (90% (3 iterations)) [11:54]
	(32) multiplication operation stimulation (86% (3 iterations)) [12:26]
	// (02:31) break, conversation with Kim [14:07]
	(01:33) elementary 1-9 addition mastery (split 5 technique) [15:26]
	(01:40) multiplication table mastery (two digits technique) [16:06]

	---- [06:06] ----

	// break [16:06]
	(54) addition stimulation mastery (100%) [16:10]
		- multiplication mastery (100%) [17:04]
	// break

	---- [07:00] ----
	// (01:16) sleep [18:20]
	(15) mastery (split 5, two digits multiplication) [18:35]
	// () jimmy kimmel [20:11]
	(41) MDAS stimulation with with or without decimal [20:51]

07-26-19
	(01:00) divisibility rules [12:30] [13:30]

07-27-19
	* Numeric
		* reset numeric
	Rendered Time
		* (10) elementary addition stimulation, digital 5mins [08:33] [08:43]
		* (10) elementary multiplcation stimulation, MDAS stimulation setup [08:53]
		* (10) MDAS stimulation setup [09:03]
		* (20) elementary mdas stimulation [09:23]
		* (10) recalbrate stimulation list, conceptualize reevuation on failed stimulation target accuracy rate [09:33]

		// -- break --

		* (10) stimulate prime numbers (1-100) [12:34]
		* (10) study divisibility rules 1-12
		* (10) study divisibility rules 1-12
		* (10) divisibility rules 1-12 stimulation (statement) [13:06]
		* (10) pathfind 0 divisible by 7 [13:15]
		* (10) stimulate divisibility 1-3 [13:25]

		* (10) stimulate divisibility 4-6 [13:35]
		* (10) stimulate divisibility 7-8 [13:45]
		* (10) stimulate divisibility 9-11 [13:55]
		* (10) stimulate divisibility 11 [14:05]
		* (10) stimulate divisibility 11 [14:15]
		* (10) stimulate divisibility 11 [14:25]

		// -- break --

		* (10) divisibility rules test [15:02]
		* (10) divisibility rules test [15:12]
		* (10) divisibility rules (13-50) [15:12]
		// -- break --
		* (10) divisibility rules mastery (1-50) [16:25]
		* (10) types of numbers stimulation, start orders of operation [16:35]

		* (01:16) orders of operation [17:51]
		// -- break --

		* (45) orders of operation medium difficulty master [20:51]

07-28-19
	* (----) multiplying positive and negative numbers tutorial [06:19] []
	* (02:17) difficult orders of operation stimulation [10:37] [12:54]
	* (01:29) lcm and gcf pathfind nad tests [13:11] [14:40]
	* (02:30) lcm and gcf [17:10]
	// break disciplinary action
	* (10) lcm and gcf [17:36]
	* (01:06) [19:16] [20:22]
	// (01:32) minutes for all minutes above! 
	* (01:00) download files from cse [22:35] [23:25]
	* (01:16) certificates sortation [00:51]
	* (35) C drive sortation [01:26]