9780545567473 is valid isbn13 number
9780716703440 is valid isbn13 number
9780716703440 is valid isbn13 number
9780716703440 is valid isbn13 number
9780716703440 is valid isbn13 number
9780716703440 is valid isbn13 number
9780716703440 is valid isbn13 number
9780716703440 is valid isbn13 number
9780716703440 is valid isbn13 number
9780716703441 is invalid isbn13 number

Total number of isbn13 numbers: 8
Total number of valid isbn numbers: 8
Total number of invalid isbn numbers: 0
