date,premium,company,fields,website,item_id,issues
9/25/2022,No,K00,in_stock,ebuyer.com,"K00GB3204K000001541210202108110154
K00GB320CG000001297500202101180325
K00GB320CG000000980250202006250842
K00GB3207U020220627051306806194178
K00GB3204K000001541160202108110154
K00GB3207U020220214041153597357045
K00GB3207U020220328081057279021087
K00GB320V1020220606030431876031157
K00GB3207U020220620055710302816171
K00GB320CG000001400420202105040624",-1 in_stock
9/25/2022,No,K00,in_stock,elgiganten.se,"K00SE3007U020220620055711766228171
K00SE3004K000001555720202108180340",-1 in_stock
9/25/2022,No,100,in_stock,elgiganten.se,100SE300ZQ020220718044722700029199,-1 in_stock
9/25/2022,No,K00,in_stock,euro.com.pl,"K00PLD804K000001447800202106150451
K00PLD805K000001528560202108020955
K00PLD80AD000001447630202106150451
K00PLD803F000001308480202101210525
K00PLD807U020220214041205209098045
K00PLD80CG000001298290202101180406
K00PLD803F000000987720202007060804
K00PLD80CG000001298200202101180406
K00PLD807U020220627045523553044178
K00PLD807U020211115034605492434319
K00PLD80CG000000980910202006250948
K00PLD80CG000001298250202101180406
K00PLD807U020220627045521659028178
K00PLD807U020220627045521391858178
K00PLD803F000001308590202101210525
K00PLD80CG000001298400202101180406
K00PLD80CG000001298240202101180406
K00PLD80KO000001448030202106150451
K00PLD80CG000001209500202009280448
K00PLD80CG000001298300202101180406
K00PLD803F000001528470202108020955
K00PLD80CG000001592140202109200556
K00PLD80CG000001373110202104050819
K00PLD80KO000001448060202106150451
K00PLD807U020220627045521951246178",-1 in_stock
9/25/2022,No,O00,delivery,hellotv.nl,O00NL9313R020220801021641133201213,-3 delivery
9/25/2022,No,A00,in_stock,microsoft.com/en-au,"A00AUE40KT020220808042448941071220
A00AUE40RB000000955680202005250709
A00AUE40KT020220503122634874955123
A00AUE40RB000000972790202006232224
A00AUE40RB000000955820202005250709
A00AUE40KT020220503122634555067123
A00AUE40KT020220503122635974759123
A00AUE40RB000000877750201911080757
A00AUE40RB000000955940202005250709
A00AUE40RB000000877900201911080805
A00AUE40RB000001411490202105120254
A00AUE40RB000001411470202105120254
A00AUE40RB000001411560202105120254",-1 in_stock
9/25/2022,No,A00,in_stock,microsoft.com/en-sg,"A00SG350KT020220329120131403937088
A00SG350KT020220329120132268615088
A00SG350KT020220329120131028868088
A00SG350KT020220808042456047531220
A00SG350KT020220808041350102217220
A00SG350KT020220329120131841402088
A00SG350KT020220329120131210793088
A00SG350KT020220808041350162424220
A00SG350KT020220329120132458010088
A00SG350KT020220808042456351913220
A00SG350KT020220329120130798215088
A00SG350KT020220808042456850092220
A00SG350KT020220329120131614355088
A00SG350KT020220808042455896498220
A00SG350KT020220808042456726053220
A00SG350KT020220329120130556705088
A00SG350KT020220808041350007468220
A00SG350KT020220329120132070935088
A00SG350KT020220808042456470318220
A00SG350KT020220808042456599346220
A00SG350KT020220808042456190056220",-1 in_stock
9/25/2022,No,K00,"in_stock,price_value",pcdiga.com,"K00PT3Q0CG000001582060202109130423
K00PT3Q07U020220222101515028646053","-3 in_stock,-2 price_value"
9/25/2022,No,F00,product_website,post.lu/fr,"F00BEXX0ME020220103055431363242003
F00BEWX0WJ000001656830202111120252",-1 product_website
9/25/2022,No,100,"in_stock,product_website",power.dk,100DKX2010000001413670202105130512,"-3 in_stock,-1 product_website"
9/25/2022,No,100,in_stock,utomhusliv.se,"100SETX010000001649670202111090812
100SETX010000001649690202111090812",-3 in_stock
9/25/2022,No,100,"in_stock,product_website",utomhusliv.se,"100SETX010000001651110202111090812
100SETX010000001651140202111090812","-3 in_stock,-1 product_website"
